{
    "author": "Niklas Wimmer",
    "description": "LAMP Stack",
    "software": [
        "Ubuntu Server 20.04.2.0 LTS (Focal Fossa)",
        "apache2 2.4.41-4ubuntu3.1",
        "mariadb 10.3.29-0ubuntu0.20.04.1",
        "php 7.4.3-4ubuntu2.4",
        "libapache2-mod-php 7.4+75",
        "php-mysql 7.4+75"
    ]
}
